src/success_write_core0_window0.vcd
$comment
Copyright (C) 2015-2022 Gowin Semiconductor Corporation.
$end
$date
  24/07/2022 17:29:50
$end
$timescale
  1 ps
$end
$scope
module nano4k_spi_flash_top
$end
$var
reg 1 ! crystalClk
$end
$var
reg 1 " fMclk
$end
$var
reg 1 # fChipSel
$end
$var
reg 1 $ fMiso
$end
$var
reg 1 % fMosi
$end
$var
reg 1 & dut/fData_RD[7]
$end
$var
reg 1 ' dut/fData_RD[6]
$end
$var
reg 1 ( dut/fData_RD[5]
$end
$var
reg 1 ) dut/fData_RD[4]
$end
$var
reg 1 * dut/fData_RD[3]
$end
$var
reg 1 + dut/fData_RD[2]
$end
$var
reg 1 , dut/fData_RD[1]
$end
$var
reg 1 - dut/fData_RD[0]
$end
$var
reg 1 . dut/fData_WR[7]
$end
$var
reg 1 / dut/fData_WR[6]
$end
$var
reg 1 0 dut/fData_WR[5]
$end
$var
reg 1 1 dut/fData_WR[4]
$end
$var
reg 1 2 dut/fData_WR[3]
$end
$var
reg 1 3 dut/fData_WR[2]
$end
$var
reg 1 4 dut/fData_WR[1]
$end
$var
reg 1 5 dut/fData_WR[0]
$end
$var
reg 1 6 dut/flashState[3]
$end
$var
reg 1 7 dut/flashState[2]
$end
$var
reg 1 8 dut/flashState[1]
$end
$var
reg 1 9 dut/flashState[0]
$end
$var
reg 1 : testStateCounter[21]
$end
$var
reg 1 ; testStateCounter[20]
$end
$var
reg 1 < testStateCounter[19]
$end
$var
reg 1 = testStateCounter[18]
$end
$var
reg 1 > testStateCounter[17]
$end
$var
reg 1 ? testStateCounter[16]
$end
$var
reg 1 @ testStateCounter[15]
$end
$var
reg 1 A testStateCounter[14]
$end
$var
reg 1 B testStateCounter[13]
$end
$var
reg 1 C testStateCounter[12]
$end
$var
reg 1 D testStateCounter[11]
$end
$var
reg 1 E testStateCounter[10]
$end
$var
reg 1 F testStateCounter[9]
$end
$var
reg 1 G testStateCounter[8]
$end
$var
reg 1 H testStateCounter[7]
$end
$var
reg 1 I testStateCounter[6]
$end
$var
reg 1 J testStateCounter[5]
$end
$var
reg 1 K testStateCounter[4]
$end
$var
reg 1 L testStateCounter[3]
$end
$var
reg 1 M testStateCounter[2]
$end
$var
reg 1 N testStateCounter[1]
$end
$var
reg 1 O testStateCounter[0]
$end
$var
reg 1 P dut/RdDataValid
$end
$var
reg 1 Q dut/WrDataReady
$end
$upscope
$end
$enddefinitions
$end
#0
$dumpvars
0!
X"
X#
X$
X%
X&
X'
X(
X)
X*
X+
X,
X-
X.
X/
X0
X1
X2
X3
X4
X5
X6
X7
X8
X9
X:
X;
X<
X=
X>
X?
X@
XA
XB
XC
XD
XE
XF
XG
XH
XI
XJ
XK
XL
XM
XN
XO
XP
XQ
$end
#500000
$comment Sample 0 (Start) $end
$comment Sample 0 (Trigger) $end
1!
1"
1#
1$
0%
1&
1'
1(
1)
1*
1+
1,
1-
0.
0/
00
01
02
03
14
15
06
07
08
09
0:
0;
1<
1=
1>
1?
0@
0A
0B
1C
1D
1E
0F
0G
0H
0I
1J
0K
1L
0M
1N
0O
0P
0Q
#1000000
0!

#1500000
1!
#2000000
0!

#2500000
1!
#3000000
0!

#3500000
1!
#4000000
0!

#4500000
1!
#5000000
0!

#5500000
1!
#6000000
0!

#6500000
1!
#7000000
0!

#7500000
1!
#8000000
0!

#8500000
1!
0#
1O
#9000000
0!

#9500000
1!
#10000000
0!

#10500000
1!
#11000000
0!

#11500000
1!
#12000000
0!

#12500000
1!
#13000000
0!

#13500000
1!
#14000000
0!

#14500000
1!
#15000000
0!

#15500000
1!
#16000000
0!

#16500000
1!
19
1M
0N
0O
#17000000
0!

#17500000
1!
#18000000
0!

#18500000
1!
#19000000
0!

#19500000
1!
#20000000
0!

#20500000
1!
#21000000
0!

#21500000
1!
#22000000
0!

#22500000
1!
#23000000
0!

#23500000
1!
#24000000
0!

#24500000
1!
1O
#25000000
0!

#25500000
1!
#26000000
0!

#26500000
1!
#27000000
0!

#27500000
1!
#28000000
0!

#28500000
1!
0"
#29000000
0!

#29500000
1!
#30000000
0!

#30500000
1!
#31000000
0!

#31500000
1!
#32000000
0!

#32500000
1!
1"
1N
0O
#33000000
0!

#33500000
1!
#34000000
0!

#34500000
1!
#35000000
0!

#35500000
1!
#36000000
0!

#36500000
1!
0"
#37000000
0!

#37500000
1!
#38000000
0!

#38500000
1!
#39000000
0!

#39500000
1!
#40000000
0!

#40500000
1!
1"
1O
#41000000
0!

#41500000
1!
#42000000
0!

#42500000
1!
#43000000
0!

#43500000
1!
#44000000
0!

#44500000
1!
0"
#45000000
0!

#45500000
1!
#46000000
0!

#46500000
1!
#47000000
0!

#47500000
1!
#48000000
0!

#48500000
1!
1"
1K
0L
0M
0N
0O
#49000000
0!

#49500000
1!
#50000000
0!

#50500000
1!
#51000000
0!

#51500000
1!
#52000000
0!

#52500000
1!
0"
#53000000
0!

#53500000
1!
#54000000
0!

#54500000
1!
#55000000
0!

#55500000
1!
#56000000
0!

#56500000
1!
1"
1O
#57000000
0!

#57500000
1!
#58000000
0!

#58500000
1!
#59000000
0!

#59500000
1!
#60000000
0!

#60500000
1!
0"
#61000000
0!

#61500000
1!
#62000000
0!

#62500000
1!
#63000000
0!

#63500000
1!
#64000000
0!

#64500000
1!
1"
1N
0O
#65000000
0!

#65500000
1!
#66000000
0!

#66500000
1!
#67000000
0!

#67500000
1!
#68000000
0!

#68500000
1!
0"
1%
#69000000
0!

#69500000
1!
#70000000
0!

#70500000
1!
#71000000
0!

#71500000
1!
#72000000
0!

#72500000
1!
1"
1O
#73000000
0!

#73500000
1!
#74000000
0!

#74500000
1!
#75000000
0!

#75500000
1!
#76000000
0!

#76500000
1!
0"
0%
#77000000
0!

#77500000
1!
#78000000
0!

#78500000
1!
#79000000
0!

#79500000
1!
#80000000
0!

#80500000
1!
1"
1M
0N
0O
#81000000
0!

#81500000
1!
#82000000
0!

#82500000
1!
#83000000
0!

#83500000
1!
#84000000
0!

#84500000
1!
0"
1%
#85000000
0!

#85500000
1!
#86000000
0!

#86500000
1!
#87000000
0!

#87500000
1!
#88000000
0!

#88500000
1!
1"
17
09
1O
#89000000
0!

#89500000
1!
#90000000
0!

#90500000
1!
#91000000
0!

#91500000
1!
#92000000
0!

#92500000
1!
0%
#93000000
0!

#93500000
1!
#94000000
0!

#94500000
1!
#95000000
0!

#95500000
1!
#96000000
0!

#96500000
1!
1N
0O
#97000000
0!

#97500000
1!
#98000000
0!

#98500000
1!
#99000000
0!

#99500000
1!
#100000000
0!

#100500000
1!
0"
0$
#101000000
0!

#101500000
1!
#102000000
0!

#102500000
1!
#103000000
0!

#103500000
1!
#104000000
0!

#104500000
1!
1"
1O
#105000000
0!

#105500000
1!
#106000000
0!

#106500000
1!
#107000000
0!

#107500000
1!
#108000000
0!

#108500000
1!
0"
#109000000
0!

#109500000
1!
#110000000
0!

#110500000
1!
#111000000
0!

#111500000
1!
#112000000
0!

#112500000
1!
1"
1L
0M
0N
0O
#113000000
0!

#113500000
1!
#114000000
0!

#114500000
1!
#115000000
0!

#115500000
1!
#116000000
0!

#116500000
1!
0"
#117000000
0!

#117500000
1!
#118000000
0!

#118500000
1!
#119000000
0!

#119500000
1!
#120000000
0!

#120500000
1!
1"
1O
#121000000
0!

#121500000
1!
#122000000
0!

#122500000
1!
#123000000
0!

#123500000
1!
#124000000
0!

#124500000
1!
0"
#125000000
0!

#125500000
1!
#126000000
0!

#126500000
1!
#127000000
0!

#127500000
1!
#128000000
0!

#128500000
1!
1"
1N
0O
#129000000
0!

#129500000
1!
#130000000
0!

#130500000
1!
#131000000
0!

#131500000
1!
#132000000
0!

#132500000
1!
0"
#133000000
0!

#133500000
1!
#134000000
0!

#134500000
1!
#135000000
0!

#135500000
1!
#136000000
0!

#136500000
1!
1"
1O
#137000000
0!

#137500000
1!
#138000000
0!

#138500000
1!
#139000000
0!

#139500000
1!
#140000000
0!

#140500000
1!
0"
#141000000
0!

#141500000
1!
#142000000
0!

#142500000
1!
#143000000
0!

#143500000
1!
#144000000
0!

#144500000
1!
1"
1M
0N
0O
#145000000
0!

#145500000
1!
#146000000
0!

#146500000
1!
#147000000
0!

#147500000
1!
#148000000
0!

#148500000
1!
0"
1$
#149000000
0!

#149500000
1!
#150000000
0!

#150500000
1!
#151000000
0!

#151500000
1!
#152000000
0!

#152500000
1!
1"
1O
#153000000
0!

#153500000
1!
#154000000
0!

#154500000
1!
#155000000
0!

#155500000
1!
#156000000
0!

#156500000
1!
0"
0$
#157000000
0!

#157500000
1!
#158000000
0!

#158500000
1!
#159000000
0!

#159500000
1!
#160000000
0!

#160500000
1!
1"
1N
0O
#161000000
0!

#161500000
1!
#162000000
0!

#162500000
1!
#163000000
0!

#163500000
1!
#164000000
0!

#164500000
1!
0"
#165000000
0!

#165500000
1!
#166000000
0!

#166500000
1!
#167000000
0!

#167500000
1!
#168000000
0!

#168500000
1!
1"
0&
0'
0(
0)
0*
0+
0-
1O
1P
#169000000
0!

#169500000
1!
#170000000
0!

#170500000
1!
#171000000
0!

#171500000
1!
#172000000
0!

#172500000
1!
0"
#173000000
0!

#173500000
1!
#174000000
0!

#174500000
1!
#175000000
0!

#175500000
1!
#176000000
0!

#176500000
1!
1"
1#
1I
0J
0K
0L
0M
0N
0O
0P
#177000000
0!

#177500000
1!
#178000000
0!

#178500000
1!
#179000000
0!

#179500000
1!
#180000000
0!

#180500000
1!
0"
#181000000
0!

#181500000
1!
#182000000
0!

#182500000
1!
#183000000
0!

#183500000
1!
#184000000
0!

#184500000
1!
1"
07
1O
#185000000
0!

#185500000
1!
#186000000
0!

#186500000
1!
1$
#187000000
0!

#187500000
1!
#188000000
0!

#188500000
1!
#189000000
0!

#189500000
1!
#190000000
0!

#190500000
1!
#191000000
0!

#191500000
1!
#192000000
0!

#192500000
1!
1N
0O
#193000000
0!

#193500000
1!
#194000000
0!

#194500000
1!
#195000000
0!

#195500000
1!
#196000000
0!

#196500000
1!
#197000000
0!

#197500000
1!
#198000000
0!

#198500000
1!
#199000000
0!

#199500000
1!
#200000000
0!

#200500000
1!
1O
#201000000
0!

#201500000
1!
#202000000
0!

#202500000
1!
#203000000
0!

#203500000
1!
#204000000
0!

#204500000
1!
#205000000
0!

#205500000
1!
#206000000
0!

#206500000
1!
#207000000
0!

#207500000
1!
#208000000
0!

#208500000
1!
1M
0N
0O
#209000000
0!

#209500000
1!
#210000000
0!

#210500000
1!
#211000000
0!

#211500000
1!
#212000000
0!

#212500000
1!
#213000000
0!

#213500000
1!
#214000000
0!

#214500000
1!
#215000000
0!

#215500000
1!
#216000000
0!

#216500000
1!
1O
#217000000
0!

#217500000
1!
#218000000
0!

#218500000
1!
#219000000
0!

#219500000
1!
#220000000
0!

#220500000
1!
#221000000
0!

#221500000
1!
#222000000
0!

#222500000
1!
#223000000
0!

#223500000
1!
#224000000
0!

#224500000
1!
1N
0O
#225000000
0!

#225500000
1!
#226000000
0!

#226500000
1!
#227000000
0!

#227500000
1!
#228000000
0!

#228500000
1!
#229000000
0!

#229500000
1!
#230000000
0!

#230500000
1!
#231000000
0!

#231500000
1!
#232000000
0!

#232500000
1!
1O
#233000000
0!

#233500000
1!
#234000000
0!

#234500000
1!
#235000000
0!

#235500000
1!
#236000000
0!

#236500000
1!
#237000000
0!

#237500000
1!
#238000000
0!

#238500000
1!
#239000000
0!

#239500000
1!
#240000000
0!

#240500000
1!
1L
0M
0N
0O
#241000000
0!

#241500000
1!
#242000000
0!

#242500000
1!
#243000000
0!

#243500000
1!
#244000000
0!

#244500000
1!
#245000000
0!

#245500000
1!
#246000000
0!

#246500000
1!
#247000000
0!

#247500000
1!
#248000000
0!

#248500000
1!
1O
#249000000
0!

#249500000
1!
#250000000
0!

#250500000
1!
#251000000
0!

#251500000
1!
#252000000
0!

#252500000
1!
#253000000
0!

#253500000
1!
#254000000
0!

#254500000
1!
#255000000
0!

#255500000
1!
#256000000
0!

#256500000
1!
1N
0O
#257000000
0!

#257500000
1!
#258000000
0!

#258500000
1!
#259000000
0!

#259500000
1!
#260000000
0!

#260500000
1!
#261000000
0!

#261500000
1!
#262000000
0!

#262500000
1!
#263000000
0!

#263500000
1!
#264000000
0!

#264500000
1!
1O
#265000000
0!

#265500000
1!
#266000000
0!

#266500000
1!
#267000000
0!

#267500000
1!
#268000000
0!

#268500000
1!
#269000000
0!

#269500000
1!
#270000000
0!

#270500000
1!
#271000000
0!

#271500000
1!
#272000000
0!

#272500000
1!
1M
0N
0O
#273000000
0!

#273500000
1!
#274000000
0!

#274500000
1!
#275000000
0!

#275500000
1!
#276000000
0!

#276500000
1!
#277000000
0!

#277500000
1!
#278000000
0!

#278500000
1!
#279000000
0!

#279500000
1!
#280000000
0!

#280500000
1!
1O
#281000000
0!

#281500000
1!
#282000000
0!

#282500000
1!
#283000000
0!

#283500000
1!
#284000000
0!

#284500000
1!
#285000000
0!

#285500000
1!
#286000000
0!

#286500000
1!
#287000000
0!

#287500000
1!
#288000000
0!

#288500000
1!
1N
0O
#289000000
0!

#289500000
1!
#290000000
0!

#290500000
1!
#291000000
0!

#291500000
1!
#292000000
0!

#292500000
1!
#293000000
0!

#293500000
1!
#294000000
0!

#294500000
1!
#295000000
0!

#295500000
1!
#296000000
0!

#296500000
1!
1O
#297000000
0!

#297500000
1!
#298000000
0!

#298500000
1!
#299000000
0!

#299500000
1!
#300000000
0!

#300500000
1!
#301000000
0!

#301500000
1!
#302000000
0!

#302500000
1!
#303000000
0!

#303500000
1!
#304000000
0!

#304500000
1!
1K
0L
0M
0N
0O
#305000000
0!

#305500000
1!
#306000000
0!

#306500000
1!
#307000000
0!

#307500000
1!
#308000000
0!

#308500000
1!
#309000000
0!

#309500000
1!
#310000000
0!

#310500000
1!
#311000000
0!

#311500000
1!
#312000000
0!

#312500000
1!
1O
#313000000
0!

#313500000
1!
#314000000
0!

#314500000
1!
#315000000
0!

#315500000
1!
#316000000
0!

#316500000
1!
#317000000
0!

#317500000
1!
#318000000
0!

#318500000
1!
#319000000
0!

#319500000
1!
#320000000
0!

#320500000
1!
1N
0O
#321000000
0!

#321500000
1!
#322000000
0!

#322500000
1!
#323000000
0!

#323500000
1!
#324000000
0!

#324500000
1!
#325000000
0!

#325500000
1!
#326000000
0!

#326500000
1!
#327000000
0!

#327500000
1!
#328000000
0!

#328500000
1!
1O
#329000000
0!

#329500000
1!
#330000000
0!

#330500000
1!
#331000000
0!

#331500000
1!
#332000000
0!

#332500000
1!
#333000000
0!

#333500000
1!
#334000000
0!

#334500000
1!
#335000000
0!

#335500000
1!
#336000000
0!

#336500000
1!
1M
0N
0O
#337000000
0!

#337500000
1!
#338000000
0!

#338500000
1!
#339000000
0!

#339500000
1!
#340000000
0!

#340500000
1!
#341000000
0!

#341500000
1!
#342000000
0!

#342500000
1!
#343000000
0!

#343500000
1!
#344000000
0!

#344500000
1!
1O
#345000000
0!

#345500000
1!
#346000000
0!

#346500000
1!
#347000000
0!

#347500000
1!
#348000000
0!

#348500000
1!
#349000000
0!

#349500000
1!
#350000000
0!

#350500000
1!
#351000000
0!

#351500000
1!
#352000000
0!

#352500000
1!
1N
0O
#353000000
0!

#353500000
1!
#354000000
0!

#354500000
1!
#355000000
0!

#355500000
1!
#356000000
0!

#356500000
1!
#357000000
0!

#357500000
1!
#358000000
0!

#358500000
1!
#359000000
0!

#359500000
1!
#360000000
0!

#360500000
1!
1O
#361000000
0!

#361500000
1!
#362000000
0!

#362500000
1!
#363000000
0!

#363500000
1!
#364000000
0!

#364500000
1!
#365000000
0!

#365500000
1!
#366000000
0!

#366500000
1!
#367000000
0!

#367500000
1!
#368000000
0!

#368500000
1!
1L
0M
0N
0O
#369000000
0!

#369500000
1!
#370000000
0!

#370500000
1!
#371000000
0!

#371500000
1!
#372000000
0!

#372500000
1!
#373000000
0!

#373500000
1!
#374000000
0!

#374500000
1!
#375000000
0!

#375500000
1!
#376000000
0!

#376500000
1!
1O
#377000000
0!

#377500000
1!
#378000000
0!

#378500000
1!
#379000000
0!

#379500000
1!
#380000000
0!

#380500000
1!
#381000000
0!

#381500000
1!
#382000000
0!

#382500000
1!
#383000000
0!

#383500000
1!
#384000000
0!

#384500000
1!
1N
0O
#385000000
0!

#385500000
1!
#386000000
0!

#386500000
1!
#387000000
0!

#387500000
1!
#388000000
0!

#388500000
1!
#389000000
0!

#389500000
1!
#390000000
0!

#390500000
1!
#391000000
0!

#391500000
1!
#392000000
0!

#392500000
1!
1O
#393000000
0!

#393500000
1!
#394000000
0!

#394500000
1!
#395000000
0!

#395500000
1!
#396000000
0!

#396500000
1!
#397000000
0!

#397500000
1!
#398000000
0!

#398500000
1!
#399000000
0!

#399500000
1!
#400000000
0!

#400500000
1!
1M
0N
0O
#401000000
0!

#401500000
1!
#402000000
0!

#402500000
1!
#403000000
0!

#403500000
1!
#404000000
0!

#404500000
1!
#405000000
0!

#405500000
1!
#406000000
0!

#406500000
1!
#407000000
0!

#407500000
1!
#408000000
0!

#408500000
1!
0#
13
04
05
1O
#409000000
0!

#409500000
1!
#410000000
0!

#410500000
1!
#411000000
0!

#411500000
1!
#412000000
0!

#412500000
1!
#413000000
0!

#413500000
1!
#414000000
0!

#414500000
1!
#415000000
0!

#415500000
1!
#416000000
0!

#416500000
1!
19
1N
0O
#417000000
0!

#417500000
1!
#418000000
0!

#418500000
1!
#419000000
0!

#419500000
1!
#420000000
0!

#420500000
1!
#421000000
0!

#421500000
1!
#422000000
0!

#422500000
1!
#423000000
0!

#423500000
1!
#424000000
0!

#424500000
1!
1O
#425000000
0!

#425500000
1!
#426000000
0!

#426500000
1!
#427000000
0!

#427500000
1!
#428000000
0!

#428500000
1!
0"
#429000000
0!

#429500000
1!
#430000000
0!

#430500000
1!
#431000000
0!

#431500000
1!
#432000000
0!

#432500000
1!
1"
1J
0K
0L
0M
0N
0O
#433000000
0!

#433500000
1!
#434000000
0!

#434500000
1!
#435000000
0!

#435500000
1!
#436000000
0!

#436500000
1!
0"
#437000000
0!

#437500000
1!
#438000000
0!

#438500000
1!
#439000000
0!

#439500000
1!
#440000000
0!

#440500000
1!
1"
1O
#441000000
0!

#441500000
1!
#442000000
0!

#442500000
1!
#443000000
0!

#443500000
1!
#444000000
0!

#444500000
1!
0"
#445000000
0!

#445500000
1!
#446000000
0!

#446500000
1!
#447000000
0!

#447500000
1!
#448000000
0!

#448500000
1!
1"
1N
0O
#449000000
0!

#449500000
1!
#450000000
0!

#450500000
1!
#451000000
0!

#451500000
1!
#452000000
0!

#452500000
1!
0"
#453000000
0!

#453500000
1!
#454000000
0!

#454500000
1!
#455000000
0!

#455500000
1!
#456000000
0!

#456500000
1!
1"
1O
#457000000
0!

#457500000
1!
#458000000
0!

#458500000
1!
#459000000
0!

#459500000
1!
#460000000
0!

#460500000
1!
0"
#461000000
0!

#461500000
1!
#462000000
0!

#462500000
1!
#463000000
0!

#463500000
1!
#464000000
0!

#464500000
1!
1"
1M
0N
0O
#465000000
0!

#465500000
1!
#466000000
0!

#466500000
1!
#467000000
0!

#467500000
1!
#468000000
0!

#468500000
1!
0"
#469000000
0!

#469500000
1!
#470000000
0!

#470500000
1!
#471000000
0!

#471500000
1!
#472000000
0!

#472500000
1!
1"
1O
#473000000
0!

#473500000
1!
#474000000
0!

#474500000
1!
#475000000
0!

#475500000
1!
#476000000
0!

#476500000
1!
0"
1%
#477000000
0!

#477500000
1!
#478000000
0!

#478500000
1!
#479000000
0!

#479500000
1!
#480000000
0!

#480500000
1!
1"
1N
0O
#481000000
0!

#481500000
1!
#482000000
0!

#482500000
1!
#483000000
0!

#483500000
1!
#484000000
0!

#484500000
1!
0"
0%
#485000000
0!

#485500000
1!
#486000000
0!

#486500000
1!
#487000000
0!

#487500000
1!
#488000000
0!

#488500000
1!
1"
18
09
1O
#489000000
0!

#489500000
1!
#490000000
0!

#490500000
1!
#491000000
0!

#491500000
1!
#492000000
0!

#492500000
1!
#493000000
0!

#493500000
1!
#494000000
0!

#494500000
1!
#495000000
0!

#495500000
1!
#496000000
0!

#496500000
1!
1L
0M
0N
0O
#497000000
0!

#497500000
1!
#498000000
0!

#498500000
1!
#499000000
0!

#499500000
1!
#500000000
0!

#500500000
1!
0"
#501000000
0!

#501500000
1!
#502000000
0!

#502500000
1!
#503000000
0!

#503500000
1!
#504000000
0!

#504500000
1!
1"
1O
#505000000
0!

#505500000
1!
#506000000
0!

#506500000
1!
#507000000
0!

#507500000
1!
#508000000
0!

#508500000
1!
0"
#509000000
0!

#509500000
1!
#510000000
0!

#510500000
1!
#511000000
0!

#511500000
1!
#512000000
0!

#512500000
1!
1"
1N
0O
#513000000
0!

#513500000
1!
#514000000
0!

#514500000
1!
#515000000
0!

#515500000
1!
#516000000
0!

#516500000
1!
0"
#517000000
0!

#517500000
1!
#518000000
0!

#518500000
1!
#519000000
0!

#519500000
1!
#520000000
0!

#520500000
1!
1"
1O
#521000000
0!

#521500000
1!
#522000000
0!

#522500000
1!
#523000000
0!

#523500000
1!
#524000000
0!

#524500000
1!
0"
#525000000
0!

#525500000
1!
#526000000
0!

#526500000
1!
#527000000
0!

#527500000
1!
#528000000
0!

#528500000
1!
1"
1M
0N
0O
#529000000
0!

#529500000
1!
#530000000
0!

#530500000
1!
#531000000
0!

#531500000
1!
#532000000
0!

#532500000
1!
0"
#533000000
0!

#533500000
1!
#534000000
0!

#534500000
1!
#535000000
0!

#535500000
1!
#536000000
0!

#536500000
1!
1"
1O
#537000000
0!

#537500000
1!
#538000000
0!

#538500000
1!
#539000000
0!

#539500000
1!
#540000000
0!

#540500000
1!
0"
#541000000
0!

#541500000
1!
#542000000
0!

#542500000
1!
#543000000
0!

#543500000
1!
#544000000
0!

#544500000
1!
1"
1N
0O
#545000000
0!

#545500000
1!
#546000000
0!

#546500000
1!
#547000000
0!

#547500000
1!
#548000000
0!

#548500000
1!
0"
#549000000
0!

#549500000
1!
#550000000
0!

#550500000
1!
#551000000
0!

#551500000
1!
#552000000
0!

#552500000
1!
1"
1O
#553000000
0!

#553500000
1!
#554000000
0!

#554500000
1!
#555000000
0!

#555500000
1!
#556000000
0!

#556500000
1!
0"
#557000000
0!

#557500000
1!
#558000000
0!

#558500000
1!
#559000000
0!

#559500000
1!
#560000000
0!

#560500000
1!
1"
1K
0L
0M
0N
0O
#561000000
0!

#561500000
1!
#562000000
0!

#562500000
1!
#563000000
0!

#563500000
1!
#564000000
0!

#564500000
1!
0"
1%
#565000000
0!

#565500000
1!
#566000000
0!

#566500000
1!
#567000000
0!

#567500000
1!
#568000000
0!

#568500000
1!
1"
1O
#569000000
0!

#569500000
1!
#570000000
0!

#570500000
1!
#571000000
0!

#571500000
1!
#572000000
0!

#572500000
1!
0"
0%
#573000000
0!

#573500000
1!
#574000000
0!

#574500000
1!
#575000000
0!

#575500000
1!
#576000000
0!

#576500000
1!
1"
1N
0O
#577000000
0!

#577500000
1!
#578000000
0!

#578500000
1!
#579000000
0!

#579500000
1!
#580000000
0!

#580500000
1!
0"
1%
#581000000
0!

#581500000
1!
#582000000
0!

#582500000
1!
#583000000
0!

#583500000
1!
#584000000
0!

#584500000
1!
1"
1O
#585000000
0!

#585500000
1!
#586000000
0!

#586500000
1!
#587000000
0!

#587500000
1!
#588000000
0!

#588500000
1!
0"
0%
#589000000
0!

#589500000
1!
#590000000
0!

#590500000
1!
#591000000
0!

#591500000
1!
#592000000
0!

#592500000
1!
1"
1M
0N
0O
#593000000
0!

#593500000
1!
#594000000
0!

#594500000
1!
#595000000
0!

#595500000
1!
#596000000
0!

#596500000
1!
0"
#597000000
0!

#597500000
1!
#598000000
0!

#598500000
1!
#599000000
0!

#599500000
1!
#600000000
0!

#600500000
1!
1"
1O
#601000000
0!

#601500000
1!
#602000000
0!

#602500000
1!
#603000000
0!

#603500000
1!
#604000000
0!

#604500000
1!
0"
#605000000
0!

#605500000
1!
#606000000
0!

#606500000
1!
#607000000
0!

#607500000
1!
#608000000
0!

#608500000
1!
1"
1N
0O
#609000000
0!

#609500000
1!
#610000000
0!

#610500000
1!
#611000000
0!

#611500000
1!
#612000000
0!

#612500000
1!
0"
#613000000
0!

#613500000
1!
#614000000
0!

#614500000
1!
#615000000
0!

#615500000
1!
#616000000
0!

#616500000
1!
1"
1O
#617000000
0!

#617500000
1!
#618000000
0!

#618500000
1!
#619000000
0!

#619500000
1!
#620000000
0!

#620500000
1!
0"
#621000000
0!

#621500000
1!
#622000000
0!

#622500000
1!
#623000000
0!

#623500000
1!
#624000000
0!

#624500000
1!
1"
1L
0M
0N
0O
#625000000
0!

#625500000
1!
#626000000
0!

#626500000
1!
#627000000
0!

#627500000
1!
#628000000
0!

#628500000
1!
0"
#629000000
0!

#629500000
1!
#630000000
0!

#630500000
1!
#631000000
0!

#631500000
1!
#632000000
0!

#632500000
1!
1"
1O
#633000000
0!

#633500000
1!
#634000000
0!

#634500000
1!
#635000000
0!

#635500000
1!
#636000000
0!

#636500000
1!
0"
#637000000
0!

#637500000
1!
#638000000
0!

#638500000
1!
#639000000
0!

#639500000
1!
#640000000
0!

#640500000
1!
1"
1N
0O
#641000000
0!

#641500000
1!
#642000000
0!

#642500000
1!
#643000000
0!

#643500000
1!
#644000000
0!

#644500000
1!
0"
#645000000
0!

#645500000
1!
#646000000
0!

#646500000
1!
#647000000
0!

#647500000
1!
#648000000
0!

#648500000
1!
1"
1O
#649000000
0!

#649500000
1!
#650000000
0!

#650500000
1!
#651000000
0!

#651500000
1!
#652000000
0!

#652500000
1!
0"
#653000000
0!

#653500000
1!
#654000000
0!

#654500000
1!
#655000000
0!

#655500000
1!
#656000000
0!

#656500000
1!
1"
1M
0N
0O
#657000000
0!

#657500000
1!
#658000000
0!

#658500000
1!
#659000000
0!

#659500000
1!
#660000000
0!

#660500000
1!
0"
#661000000
0!

#661500000
1!
#662000000
0!

#662500000
1!
#663000000
0!

#663500000
1!
#664000000
0!

#664500000
1!
1"
1O
#665000000
0!

#665500000
1!
#666000000
0!

#666500000
1!
#667000000
0!

#667500000
1!
#668000000
0!

#668500000
1!
0"
#669000000
0!

#669500000
1!
#670000000
0!

#670500000
1!
#671000000
0!

#671500000
1!
#672000000
0!

#672500000
1!
1"
1N
0O
#673000000
0!

#673500000
1!
#674000000
0!

#674500000
1!
#675000000
0!

#675500000
1!
#676000000
0!

#676500000
1!
0"
#677000000
0!

#677500000
1!
#678000000
0!

#678500000
1!
#679000000
0!

#679500000
1!
#680000000
0!

#680500000
1!
1"
1O
#681000000
0!

#681500000
1!
#682000000
0!

#682500000
1!
#683000000
0!

#683500000
1!
#684000000
0!

#684500000
1!
0"
1%
#685000000
0!

#685500000
1!
#686000000
0!

#686500000
1!
#687000000
0!

#687500000
1!
#688000000
0!

#688500000
1!
1"
17
08
1H
0I
0J
0K
0L
0M
0N
0O
#689000000
0!

#689500000
1!
#690000000
0!

#690500000
1!
#691000000
0!

#691500000
1!
#692000000
0!

#692500000
1!
0%
#693000000
0!

#693500000
1!
#694000000
0!

#694500000
1!
#695000000
0!

#695500000
1!
#696000000
0!

#696500000
1!
1O
#697000000
0!

#697500000
1!
#698000000
0!

#698500000
1!
#699000000
0!

#699500000
1!
#700000000
0!

#700500000
1!
0"
#701000000
0!

#701500000
1!
#702000000
0!

#702500000
1!
#703000000
0!

#703500000
1!
#704000000
0!

#704500000
1!
1"
1N
0O
#705000000
0!

#705500000
1!
#706000000
0!

#706500000
1!
#707000000
0!

#707500000
1!
#708000000
0!

#708500000
1!
0"
#709000000
0!

#709500000
1!
#710000000
0!

#710500000
1!
#711000000
0!

#711500000
1!
#712000000
0!

#712500000
1!
1"
1O
#713000000
0!

#713500000
1!
#714000000
0!

#714500000
1!
#715000000
0!

#715500000
1!
#716000000
0!

#716500000
1!
0"
#717000000
0!

#717500000
1!
#718000000
0!

#718500000
1!
#719000000
0!

#719500000
1!
#720000000
0!

#720500000
1!
1"
1M
0N
0O
#721000000
0!

#721500000
1!
#722000000
0!

#722500000
1!
#723000000
0!

#723500000
1!
#724000000
0!

#724500000
1!
0"
#725000000
0!

#725500000
1!
#726000000
0!

#726500000
1!
#727000000
0!

#727500000
1!
#728000000
0!

#728500000
1!
1"
1O
#729000000
0!

#729500000
1!
#730000000
0!

#730500000
1!
#731000000
0!

#731500000
1!
#732000000
0!

#732500000
1!
0"
#733000000
0!

#733500000
1!
#734000000
0!

#734500000
1!
#735000000
0!

#735500000
1!
#736000000
0!

#736500000
1!
1"
1N
0O
#737000000
0!

#737500000
1!
#738000000
0!

#738500000
1!
#739000000
0!

#739500000
1!
#740000000
0!

#740500000
1!
0"
1%
#741000000
0!

#741500000
1!
#742000000
0!

#742500000
1!
#743000000
0!

#743500000
1!
#744000000
0!

#744500000
1!
1"
1O
#745000000
0!

#745500000
1!
#746000000
0!

#746500000
1!
#747000000
0!

#747500000
1!
#748000000
0!

#748500000
1!
0"
0%
#749000000
0!

#749500000
1!
#750000000
0!

#750500000
1!
#751000000
0!

#751500000
1!
#752000000
0!

#752500000
1!
1"
1L
0M
0N
0O
#753000000
0!

#753500000
1!
#754000000
0!

#754500000
1!
#755000000
0!

#755500000
1!
#756000000
0!

#756500000
1!
0"
#757000000
0!

#757500000
1!
#758000000
0!

#758500000
1!
#759000000
0!

#759500000
1!
#760000000
0!

#760500000
1!
1"
1#
1O
1Q
#761000000
0!

#761500000
1!
#762000000
0!

#762500000
1!
#763000000
0!

#763500000
1!
#764000000
0!

#764500000
1!
0"
#765000000
0!

#765500000
1!
#766000000
0!

#766500000
1!
#767000000
0!

#767500000
1!
#768000000
0!

#768500000
1!
1"
07
1N
0O
0Q
#769000000
0!

#769500000
1!
#770000000
0!

#770500000
1!
#771000000
0!

#771500000
1!
#772000000
0!

#772500000
1!
#773000000
0!

